Read HTP data — read_HTP • exploreHTP
…
#> $exp_design_resum
#> # A tibble: 1 × 6
#>       n n_gen n_row n_range num_of_reps num_of_gen
#>   <int> <int> <int>   <int> <chr>       <chr>     
#> 1   196   185    14      14 1_2         174_11    
#> 
#> $locals_min_max
#> # A tibble: 2 × 3
#>   trait  local_min_at local_max_at
#>   <chr>  <chr>        <chr>       
#> 1 Canopy ""           76          
#> 2 PH     "56_100"     42_76       
#> 
#> $dt_long
#> # A tibble: 3,136 × 7
#>     time  plot   row range genotype  trait    value
#>    <dbl> <dbl> <dbl> <dbl> <chr>     <chr>    <dbl>
#>  1    29     1     1     1 W17037-24 Canopy  0     
#>  2    29     1     1     1 W17037-24 PH     NA     
#>  3    36     1     1     1 W17037-24 Canopy  0.648 
#>  4    36     1     1     1 W17037-24 PH      0.0154
#>  5    42     1     1     1 W17037-24 Canopy 14.4   
#>  6    42     1     1     1 W17037-24 PH      0.0173
#>  7    56     1     1     1 W17037-24 Canopy 74.5   
#>  8    56     1     1     1 W17037-24 PH      0.0941
#>  9    76     1     1     1 W17037-24 Canopy 99.7   
#> 10    76     1     1     1 W17037-24 PH      0.456 
#> # ℹ 3,126 more rows
…
